ALU/tb.vcd
$date
    Feb 11, 2026  18:21:54
$end
$version
    TOOL:	xmsim(64)	24.03-s013
$end
$timescale
    1 ps
$end

$scope module tb $end
$var parameter 32 !    INT_W $end
$var parameter 32 "    FRAC_W $end
$var parameter 32 #    INST_W $end
$var parameter 32 $    DATA_W $end
$var reg       1 %    i_clk $end
$var reg       1 &    i_rst_n $end
$var reg       1 '    i_valid $end
$var reg      12 (    i_data_a [11:0] $end
$var reg      12 )    i_data_b [11:0] $end
$var reg       3 *    i_inst [2:0] $end
$var wire      1 +    o_valid  $end
$var wire     12 ,    o_data [11:0] $end
$var wire      1 -    o_overflow  $end
$var integer  32 .    i $end
$var integer  32 /    j $end
$var integer  32 0    error $end
$var reg      27 1    inst_idata[0] [26:0] $end
$var reg      27 2    inst_idata[1] [26:0] $end
$var reg      27 3    inst_idata[2] [26:0] $end
$var reg      27 4    inst_idata[3] [26:0] $end
$var reg      27 5    inst_idata[4] [26:0] $end
$var reg      27 6    inst_idata[5] [26:0] $end
$var reg      27 7    inst_idata[6] [26:0] $end
$var reg      27 8    inst_idata[7] [26:0] $end
$var reg      27 9    inst_idata[8] [26:0] $end
$var reg      27 :    inst_idata[9] [26:0] $end
$var reg      27 ;    inst_idata[10] [26:0] $end
$var reg      27 <    inst_idata[11] [26:0] $end
$var reg      27 =    inst_idata[12] [26:0] $end
$var reg      27 >    inst_idata[13] [26:0] $end
$var reg      27 ?    inst_idata[14] [26:0] $end
$var reg      27 @    inst_idata[15] [26:0] $end
$var reg      27 A    inst_idata[16] [26:0] $end
$var reg      27 B    inst_idata[17] [26:0] $end
$var reg      27 C    inst_idata[18] [26:0] $end
$var reg      27 D    inst_idata[19] [26:0] $end
$var reg      13 E    inst_odata[0] [12:0] $end
$var reg      13 F    inst_odata[1] [12:0] $end
$var reg      13 G    inst_odata[2] [12:0] $end
$var reg      13 H    inst_odata[3] [12:0] $end
$var reg      13 I    inst_odata[4] [12:0] $end
$var reg      13 J    inst_odata[5] [12:0] $end
$var reg      13 K    inst_odata[6] [12:0] $end
$var reg      13 L    inst_odata[7] [12:0] $end
$var reg      13 M    inst_odata[8] [12:0] $end
$var reg      13 N    inst_odata[9] [12:0] $end
$var reg      13 O    inst_odata[10] [12:0] $end
$var reg      13 P    inst_odata[11] [12:0] $end
$var reg      13 Q    inst_odata[12] [12:0] $end
$var reg      13 R    inst_odata[13] [12:0] $end
$var reg      13 S    inst_odata[14] [12:0] $end
$var reg      13 T    inst_odata[15] [12:0] $end
$var reg      13 U    inst_odata[16] [12:0] $end
$var reg      13 V    inst_odata[17] [12:0] $end
$var reg      13 W    inst_odata[18] [12:0] $end
$var reg      13 X    inst_odata[19] [12:0] $end
$var reg      12 Y    test_inA [11:0] $end
$var reg      12 Z    test_inB [11:0] $end
$var reg       3 [    test_inst [2:0] $end
$var reg       1 \    test_outO $end
$var reg      12 ]    test_outD [11:0] $end

$scope module u_alu $end
$var wire      1 ^    i_clk  $end
$var wire      1 _    i_rst_n  $end
$var wire      1 `    i_valid  $end
$var wire     12 a    i_data_a [11:0] $end
$var wire     12 b    i_data_b [11:0] $end
$var wire      3 c    i_inst [2:0] $end
$var wire      1 +    o_valid  $end
$var wire     12 ,    o_data [11:0] $end
$var wire      1 -    o_overflow  $end
$var reg      12 d    o_data_w [11:0] $end
$var reg      12 e    o_data_r [11:0] $end
$var reg       1 f    o_valid_w $end
$var reg       1 g    o_valid_r $end
$var reg       1 h    o_overflow_w $end
$var reg       1 i    o_overflow_r $end
$var reg      12 j    MAC_accumulate [11:0] $end
$var reg       1 k    MAC_overflow $end
$var wire     12 l    abs_a [11:0] $end
$var wire     12 m    abs_b [11:0] $end
$var wire     13 n    signed_sum [12:0] $end
$var wire     24 o    mult_wide [23:0] $end
$var wire     12 p    mult_fixed_point [11:0] $end
$var wire     13 q    MAC_summation [12:0] $end
$upscope $end

$upscope $end

$enddefinitions $end
$dumpvars
b1100 $
b11 #
b101 "
b111 !
0%
1&
0'
b0 (
b0 )
b0 *
x+
bx ,
x-
b0 .
b0 /
b0 0
b111001100000100000000110101 1
b10101001111110000000101001 2
b10111101111010101111011011 3
b11111101100010000001100000 4
b11111101101111000000111111 5
b11111111101011111100111001 6
b10101110010011000000 7
b1110011100101111101010001 8
b110110110000110110000101100 9
b110001000000101101011100101 :
b101100000110000011110100101 ;
b11111101111101000000111011 <
b11000011101000000001000100 =
b11111110101010111110000100 >
b11111111110000111100001110 ?
b11111100001011111100111100 @
b11000011001111000011001011 A
b100111101110010100100100001 B
b111010101000110100011010101 C
b101011000000110001100100 D
b1100000100 E
b100011110001 F
b1100010101101 G
b111000100110 H
b110100001001 I
b110110001100 J
b10101101110 K
b1001101100 L
b110011011001 M
b111001110101 N
b11110100101 O
b111100001110 P
b11111011 Q
b1001001000 R
b1011000001 S
b1100010011110 T
b1110110111111 U
b100110101100 V
b11100101011 W
b1011100100100 X
bx Y
bx Z
bx [
x\
bx ]
0^
1_
0`
b0 a
b0 b
b0 c
bx d
bx e
xf
xg
xh
xi
bx j
xk
b0 l
b0 m
b0 n
b0 o
b0 p
bx q
$end
#2500
0&
0_
b0 e
0i
0g
b0 j
0k
b0 q
0+
0-
b0 ,
#5000
1%
1^
b0 d
0h
0f
#10000
0%
0^
#15000
1%
1^
#20000
0%
0^
#22500
1&
1_
#25000
1%
1^
#30000
0%
0^
#35000
1%
1^
#40000
0%
1'
b110101 (
b1100000100 )
b111 *
b1 .
b111 c
b1100000100 b
b110101 a
1`
0^
b110101 l
b1001111111010100 o
b1100111001 n
b1100000100 m
b10011111111 p
b10011111111 q
#45000
1%
1^
b1100000100 d
1f
b1100000100 e
1g
1+
b1100000100 ,
#50000
0%
b110101 Y
b1100000100 Z
b111 [
0\
b1100000100 ]
b1 /
b101001 (
b101001111110 )
b10 *
b10 .
b10 c
b101001111110 b
b101001 a
0^
b101001 l
b111111110001111000101110 o
b1101010100111 n
b10110000010 m
b100011110001 p
b1100011110001 q
#55000
1%
1^
b0 d
0f
b100011110001 d
1f
b100011110001 e
b100011110001 ,
#60000
0%
b101001 Y
b101001111110 Z
b10 [
b100011110001 ]
b10 /
b101111011011 (
b111101111010 )
b11 .
b111101111010 b
b101111011011 a
0^
b10000100101 l
b100010101101011110 o
b1101101010101 n
b10000110 m
b101011011 p
b101011011 q
#65000
1%
1^
b0 d
0f
b101011011 d
1h
1f
b101011011 e
1i
1-
b101011011 ,
#70000
0%
b101111011011 Y
b111101111010 Z
1\
b100010101101 ]
b11 /
b1100000 (
b111101100010 )
b11 *
b100 .
b11 c
b111101100010 b
b1100000 a
0^
b1100000 l
b111111111100010011000000 o
b1111111000010 n
b10011110 m
b111000100110 p
b1111000100110 q
#75000
1%
1^
b0 d
0h
0f
b111000100110 d
b111000100110 j
1f
b1110001001100 q
b111000100110 e
0i
0-
b111000100110 ,
#80000
0%
b1100000 Y
b111101100010 Z
b11 [
0\
b111000100110 ]
b100 /
b111111 (
b111101101111 )
b101 .
b111101101111 b
b111111 a
0^
b111111 l
b111111111101110001010001 o
b1111110101110 n
b10010001 m
b111011100011 p
b1110100001001 q
#85000
1%
1^
b0 d
0f
b110100001001 d
b110100001001 j
1f
b1101111101100 q
b110100001001 e
b110100001001 ,
#90000
0%
b111111 Y
b111101101111 Z
b110100001001 ]
b101 /
b111100111001 (
b111111101011 )
b110 .
b111111101011 b
b111100111001 a
0^
b11000111 l
b1000001010011 o
b1111100100100 n
b10101 m
b10000011 p
b1110110001100 q
#95000
1%
1^
b0 d
0f
b110110001100 d
b110110001100 j
1f
b1111000001111 q
b110110001100 e
b110110001100 ,
#100000
0%
b111100111001 Y
b111111101011 Z
b110110001100 ]
b110 /
0'
0`
0^
#105000
1%
1^
b0 d
0f
b0 e
0g
0+
b0 ,
#110000
0%
1'
b10011000000 (
b10101110 )
b0 *
b111 .
b0 c
b10101110 b
b10011000000 a
1`
0^
b10011000000 l
b110011101010000000 o
b10101101110 n
b10101110 m
b100111010100 p
b1011101100000 q
#115000
1%
1^
b10101101110 d
1f
b10101101110 e
1g
1+
b10101101110 ,
#120000
0%
b10011000000 Y
b10101110 Z
b0 [
b10101101110 ]
b111 /
b111101010001 (
b110011100101 )
b1 *
b1000 .
b1 c
b110011100101 b
b111101010001 a
0^
b10101111 l
b100001111101110101 o
b1110000110110 n
b1100011011 m
b11111100 p
b1111010001000 q
#125000
1%
1^
b0 d
0f
b1001101100 d
1f
b1001101100 e
b1001101100 ,
#130000
0%
b111101010001 Y
b110011100101 Z
b1 [
b1001101100 ]
b1000 /
0'
0`
0^
#135000
1%
1^
b0 d
0f
b0 e
0g
b0 j
b11111100 q
0+
b0 ,
#140000
0%
1'
b110000101100 (
b110110000110 )
b110 *
b1001 .
b110 c
b110110000110 b
b110000101100 a
1`
0^
b1111010100 l
b10010111101100001000 o
b1100110110010 n
b1001111010 m
b101111011000 p
b1101111011000 q
#145000
1%
1^
b110011011001 d
1f
b110011011001 e
1g
1+
b110011011001 ,
#150000
0%
b110000101100 Y
b110110000110 Z
b110 [
b110011011001 ]
b1001 /
b101011100101 (
b1000000101 )
b1010 .
b1000000101 b
b101011100101 a
0^
b10100011011 l
b111101011011000001111001 o
b1110011101010 n
b1000000101 m
b110110000100 p
b1110110000100 q
#155000
1%
1^
b0 d
0f
b111001110101 d
1f
b111001110101 e
b111001110101 ,
#160000
0%
b101011100101 Y
b1000000101 Z
b111001110101 ]
b1010 /
0'
0`
0^
#165000
1%
1^
b0 d
0f
b0 e
0g
0+
b0 ,
#170000
0%
1'
b11110100101 (
b100000110000 )
b101 *
b1011 .
b101 c
b100000110000 b
b11110100101 a
1`
0^
b11110100101 l
b110001000100011011110000 o
b1111111010101 n
b11111010000 m
b1000111000 p
b1000111000 q
#175000
1%
1^
b11110100101 d
1f
b11110100101 e
1g
1+
b11110100101 ,
#180000
0%
b11110100101 Y
b100000110000 Z
b101 [
b11110100101 ]
b1011 /
0'
0`
0^
#185000
1%
1^
b0 d
0f
b0 e
0g
0+
b0 ,
#190000
0%
1'
b111011 (
b111101111101 )
b11 *
b1100 .
b11 c
b111101111101 b
b111011 a
1`
0^
b111011 l
b111111111110000111001111 o
b1111110111000 n
b10000011 m
b111100001110 p
b1111100001110 q
#195000
1%
1^
b111100001110 d
b111100001110 j
1f
b1111000011100 q
b111100001110 e
1g
1+
b111100001110 ,
#200000
0%
b111011 Y
b111101111101 Z
b11 [
b111100001110 ]
b1100 /
0'
0`
0^
#205000
1%
1^
b0 d
0f
b0 e
0g
0+
b0 ,
#210000
0%
1'
b1000100 (
b11101000 )
b1101 .
b11101000 b
b1000100 a
1`
0^
b1000100 l
b11110110100000 o
b100101100 n
b11101000 m
b111101101 p
b11111011 q
#215000
1%
1^
b11111011 d
b11111011 j
1f
b1011101000 q
b11111011 e
1g
1+
b11111011 ,
#220000
0%
b1000100 Y
b11101000 Z
b11111011 ]
b1101 /
b111110000100 (
b111110101010 )
b1110 .
b111110101010 b
b111110000100 a
0^
b1111100 l
b10100110101000 o
b1111100101110 n
b1010110 m
b101001101 p
b1001001000 q
#225000
1%
1^
b0 d
0f
b1001001000 d
b1001001000 j
1f
b1110010101 q
b1001001000 e
b1001001000 ,
#230000
0%
b111110000100 Y
b111110101010 Z
b1001001000 ]
b1110 /
0'
0`
0^
#235000
1%
1^
b0 d
0f
b0 e
0g
0+
b0 ,
#240000
0%
1'
b111100001110 (
b111111110000 )
b1111 .
b111111110000 b
b111100001110 a
1`
0^
b11110010 l
b111100100000 o
b1111011111110 n
b10000 m
b1111001 p
b1011000001 q
#245000
1%
1^
b1011000001 d
b1011000001 j
1f
b1100111010 q
b1011000001 e
1g
1+
b1011000001 ,
#250000
0%
b111100001110 Y
b111111110000 Z
b1011000001 ]
b1111 /
0'
0`
0^
#255000
1%
1^
b0 d
0f
b0 e
0g
0+
b0 ,
#260000
0%
0^
#265000
1%
1^
#270000
0%
0^
#275000
1%
1^
#280000
0%
1'
b111100111100 (
b111100001011 )
b10000 .
b111100001011 b
b111100111100 a
1`
0^
b11000100 l
b1011101110010100 o
b1111001000111 n
b11110101 m
b10111011101 p
b100010011110 q
#285000
1%
1^
b100010011110 d
b100010011110 j
1h
1f
b1111001111011 q
b100010011110 e
1k
1i
1g
1+
1-
b100010011110 ,
#290000
0%
b111100111100 Y
b111100001011 Z
1\
b100010011110 ]
b10000 /
0'
0`
0^
#295000
1%
1^
b0 d
0h
0f
b0 e
0i
0g
0+
0-
b0 ,
#300000
0%
1'
b11001011 (
b11001111 )
b10001 .
b11001111 b
b11001011 a
1`
0^
b11001011 l
b1010010000100101 o
b110011010 n
b11001111 m
b10100100001 p
b1110110111111 q
#305000
1%
1^
b110110111111 d
b110110111111 j
1f
b1011100000 q
b110110111111 e
1i
1g
1+
1-
b110110111111 ,
#310000
0%
b11001011 Y
b11001111 Z
b110110111111 ]
b10001 /
b100100100001 (
b111101110010 )
b100 *
b10010 .
b100 c
b111101110010 b
b100100100001 a
0^
b11011011111 l
b111100111110110010 o
b1100010010011 n
b10001110 m
b111001111110 p
b1110000111101 q
#315000
1%
1^
b0 d
0f
b100110101100 d
1f
b100110101100 e
0i
0-
b100110101100 ,
#320000
0%
b100100100001 Y
b111101110010 Z
b100 [
0\
b100110101100 ]
b10010 /
b100011010101 (
b10101000110 )
b111 *
b10011 .
b111 c
b10101000110 b
b100011010101 a
0^
b11100101011 l
b110110100011001100111110 o
b1111000011011 n
b10101000110 m
b110011010 p
b1111101011001 q
#325000
1%
1^
b0 d
0f
b11100101011 d
1f
b11100101011 e
b11100101011 ,
#330000
0%
b100011010101 Y
b10101000110 Z
b111 [
b11100101011 ]
b10011 /
b110001100100 (
b101011000000 )
b0 *
b10100 .
b0 c
b101011000000 b
b110001100100 a
0^
b1110011100 l
b100101111001100000000 o
b1011100100100 n
b10101000000 m
b11110011000 p
b10101010111 q
#335000
1%
1^
b0 d
0f
b11100100100 d
1h
1f
b11100100100 e
1i
1-
b11100100100 ,
#340000
0%
b110001100100 Y
b101011000000 Z
b0 [
1\
b11100100100 ]
b10100 /
0'
0`
0^
#345000
1%
1^
b0 d
0h
0f
b0 e
0i
0g
b0 j
0k
b11110011000 q
0+
0-
b0 ,
